4:9 ***ERROR*** unterminated string literal ignored
5:5 ***ERROR*** string literal with bad escaped character ignored
6:2 ***ERROR*** unterminated string literal with bad escaped character ignored
7:3 ***ERROR*** string literal with bad escaped character ignored
